<?xml version="1.0" encoding="UTF-8"?>
<svg height="128px" viewBox="0 0 128 128" width="128px" xmlns="http://www.w3.org/2000/svg" xmlns:xlink="http://www.w3.org/1999/xlink">
    <linearGradient id="a" gradientUnits="userSpaceOnUse">
        <stop offset="0" stop-color="#3d3846"/>
        <stop offset="0.0357143" stop-color="#5e5c64"/>
        <stop offset="0.0714286" stop-color="#3d3846"/>
        <stop offset="0.928571" stop-color="#3d3846"/>
        <stop offset="0.964286" stop-color="#5e5c64"/>
        <stop offset="1" stop-color="#3d3846"/>
    </linearGradient>
    <linearGradient id="b" x1="8.478451" x2="120.478451" xlink:href="#a" y1="103.55990575" y2="103.55990575"/>
    <linearGradient id="c" x1="8.478451" x2="120.478451" xlink:href="#a" y1="101.55990575" y2="101.55990575"/>
    <linearGradient id="d" x1="8.478451" x2="120.478451" xlink:href="#a" y1="99.55990575" y2="99.55990575"/>
    <linearGradient id="e" x1="8.478451" x2="120.478451" xlink:href="#a" y1="97.55990575" y2="97.55990575"/>
    <linearGradient id="f" gradientTransform="matrix(1 0 0 0.869743 0.16637 -140.231956)" gradientUnits="userSpaceOnUse" x1="64.124893" x2="64.65522" y1="203.906479" y2="279.390137">
        <stop offset="0"/>
        <stop offset="1" stop-color="#3d3846"/>
    </linearGradient>
    <clipPath id="g">
        <rect height="128" width="128"/>
    </clipPath>
    <clipPath id="h">
        <rect height="128" width="128"/>
    </clipPath>
    <filter id="i" height="100%" width="100%" x="0%" y="0%">
        <feColorMatrix in="SourceGraphic" type="matrix" values="0 0 0 0 1 0 0 0 0 1 0 0 0 0 1 0 0 0 1 0"/>
    </filter>
    <mask id="j">
        <g clip-path="url(#h)" filter="url(#i)">
            <g clip-path="url(#g)">
                <path d="m 8.476562 103.558594 v 4 c 0 4.433594 3.570313 8 8 8 h 96 c 4.433594 0 8 -3.566406 8 -8 v -4 c 0 4.433594 -3.566406 8 -8 8 h -96 c -4.429687 0 -8 -3.566406 -8 -8 z m 0 0" fill="url(#b)"/>
                <path d="m 8.476562 101.558594 v 4 c 0 4.433594 3.570313 8 8 8 h 96 c 4.433594 0 8 -3.566406 8 -8 v -4 c 0 4.433594 -3.566406 8 -8 8 h -96 c -4.429687 0 -8 -3.566406 -8 -8 z m 0 0" fill="url(#c)"/>
                <path d="m 8.476562 99.558594 v 4 c 0 4.433594 3.570313 8 8 8 h 96 c 4.433594 0 8 -3.566406 8 -8 v -4 c 0 4.433594 -3.566406 8 -8 8 h -96 c -4.429687 0 -8 -3.566406 -8 -8 z m 0 0" fill="url(#d)"/>
                <path d="m 8.476562 97.558594 v 4 c 0 4.433594 3.570313 8 8 8 h 96 c 4.433594 0 8 -3.566406 8 -8 v -4 c 0 4.433594 -3.566406 8 -8 8 h -96 c -4.429687 0 -8 -3.566406 -8 -8 z m 0 0" fill="url(#e)"/>
                <path d="m 16.476562 32.167969 h 96 c 4.421876 0 8 3.582031 8 8 v 59.390625 c 0 4.417968 -3.578124 8 -8 8 h -96 c -4.417968 0 -8 -3.582032 -8 -8 v -59.390625 c 0 -4.417969 3.582032 -8 8 -8 z m 0 0" fill="#241f31"/>
                <path d="m 17.152344 36.8125 h 94.652344 c 2.488281 0 4.507812 1.792969 4.507812 4 v 58.101562 c 0 2.207032 -2.019531 4 -4.507812 4 h -94.652344 c -2.488282 0 -4.507813 -1.792968 -4.507813 -4 v -58.101562 c 0 -2.207031 2.019531 -4 4.507813 -4 z m 0 0" fill="url(#f)"/>
                <path d="m 35.480469 86.929688 l -1.625 -1.628907 l 3.25 -3.25 h 8.125 l 3.25 3.25 l -1.625 1.628907 z m 13.8125 -2.441407 l -3.25 -3.25 v -8.125 l 3.25 -3.25 l 1.625 1.625 v 11.375 z m -12.1875 -12.1875 l -2.4375 -2.4375 l 2.4375 -2.4375 h 8.125 l 2.4375 2.4375 l -2.4375 2.4375 z m -4.066407 -2.4375 l -1.625 -1.625 v -11.375 l 1.625 -1.625 l 3.253907 3.25 v 8.125 z m 16.253907 0 l -3.25 -3.25 v -8.125 l 3.25 -3.25 l 1.625 1.625 v 11.375 z m -12.1875 -12.1875 l -3.25 -3.253906 l 1.625 -1.625 h 11.375 l 1.625 1.625 l -3.25 3.253906 z m 0 0" fill="#c0bfbc"/>
                <path d="m 58.789062 86.929688 l -1.625 -1.628907 l 3.25 -3.25 h 8.128907 l 3.25 3.25 l -1.625 1.628907 z m 13.816407 -2.441407 l -3.25 -3.25 v -8.125 l 3.25 -3.25 l 1.625 1.625 v 11.375 z m -12.191407 -12.1875 l -2.4375 -2.4375 l 2.4375 -2.4375 h 8.128907 l 2.4375 2.4375 l -2.4375 2.4375 z m -4.0625 -2.4375 l -1.625 -1.625 v -11.375 l 1.625 -1.625 l 3.25 3.25 v 8.125 z m 16.253907 0 l -3.25 -3.25 v -8.125 l 3.25 -3.25 l 1.625 1.625 v 11.375 z m -12.191407 -12.1875 l -3.25 -3.253906 l 1.625 -1.625 h 11.378907 l 1.625 1.625 l -3.25 3.253906 z m 0 0" fill="#c0bfbc"/>
                <path d="m 82.101562 86.929688 l -1.625 -1.628907 l 3.25 -3.25 h 8.125 l 3.25 3.25 l -1.625 1.628907 z m 13.8125 -2.441407 l -3.25 -3.25 v -8.125 l 3.25 -3.25 l 1.628907 1.625 v 11.375 z m -12.1875 -12.1875 l -2.4375 -2.4375 l 2.4375 -2.4375 h 8.125 l 2.4375 2.4375 l -2.4375 2.4375 z m -4.0625 -2.4375 l -1.625 -1.625 v -11.375 l 1.625 -1.625 l 3.25 3.25 v 8.125 z m 16.25 0 l -3.25 -3.25 v -8.125 l 3.25 -3.25 l 1.628907 1.625 v 11.375 z m -12.1875 -12.1875 l -3.25 -3.253906 l 1.625 -1.625 h 11.375 l 1.625 1.625 l -3.25 3.253906 z m 0 0" fill="#c0bfbc"/>
            </g>
        </g>
    </mask>
    <mask id="k">
        <g filter="url(#i)">
            <rect fill-opacity="0.8" height="128" width="128"/>
        </g>
    </mask>
    <linearGradient id="l" gradientTransform="matrix(0 0.37 -0.98462 0 295.38501 -30.360001)" gradientUnits="userSpaceOnUse" x1="300" x2="428" y1="235" y2="235">
        <stop offset="0" stop-color="#f9f06b"/>
        <stop offset="1" stop-color="#f5c211"/>
    </linearGradient>
    <clipPath id="m">
        <rect height="128" width="128"/>
    </clipPath>
    <clipPath id="n">
        <rect height="128" width="128"/>
    </clipPath>
    <path d="m 8.476562 103.558594 v 4 c 0 4.433594 3.570313 8 8 8 h 96 c 4.433594 0 8 -3.566406 8 -8 v -4 c 0 4.433594 -3.566406 8 -8 8 h -96 c -4.429687 0 -8 -3.566406 -8 -8 z m 0 0" fill="url(#b)"/>
    <path d="m 8.476562 101.558594 v 4 c 0 4.433594 3.570313 8 8 8 h 96 c 4.433594 0 8 -3.566406 8 -8 v -4 c 0 4.433594 -3.566406 8 -8 8 h -96 c -4.429687 0 -8 -3.566406 -8 -8 z m 0 0" fill="url(#c)"/>
    <path d="m 8.476562 99.558594 v 4 c 0 4.433594 3.570313 8 8 8 h 96 c 4.433594 0 8 -3.566406 8 -8 v -4 c 0 4.433594 -3.566406 8 -8 8 h -96 c -4.429687 0 -8 -3.566406 -8 -8 z m 0 0" fill="url(#d)"/>
    <path d="m 8.476562 97.558594 v 4 c 0 4.433594 3.570313 8 8 8 h 96 c 4.433594 0 8 -3.566406 8 -8 v -4 c 0 4.433594 -3.566406 8 -8 8 h -96 c -4.429687 0 -8 -3.566406 -8 -8 z m 0 0" fill="url(#e)"/>
    <path d="m 16.476562 32.167969 h 96 c 4.421876 0 8 3.582031 8 8 v 59.390625 c 0 4.417968 -3.578124 8 -8 8 h -96 c -4.417968 0 -8 -3.582032 -8 -8 v -59.390625 c 0 -4.417969 3.582032 -8 8 -8 z m 0 0" fill="#241f31"/>
    <path d="m 17.152344 36.8125 h 94.652344 c 2.488281 0 4.507812 1.792969 4.507812 4 v 58.101562 c 0 2.207032 -2.019531 4 -4.507812 4 h -94.652344 c -2.488282 0 -4.507813 -1.792968 -4.507813 -4 v -58.101562 c 0 -2.207031 2.019531 -4 4.507813 -4 z m 0 0" fill="url(#f)"/>
    <g fill="#c0bfbc">
        <path d="m 35.480469 86.929688 l -1.625 -1.628907 l 3.25 -3.25 h 8.125 l 3.25 3.25 l -1.625 1.628907 z m 13.8125 -2.441407 l -3.25 -3.25 v -8.125 l 3.25 -3.25 l 1.625 1.625 v 11.375 z m -12.1875 -12.1875 l -2.4375 -2.4375 l 2.4375 -2.4375 h 8.125 l 2.4375 2.4375 l -2.4375 2.4375 z m -4.066407 -2.4375 l -1.625 -1.625 v -11.375 l 1.625 -1.625 l 3.253907 3.25 v 8.125 z m 16.253907 0 l -3.25 -3.25 v -8.125 l 3.25 -3.25 l 1.625 1.625 v 11.375 z m -12.1875 -12.1875 l -3.25 -3.253906 l 1.625 -1.625 h 11.375 l 1.625 1.625 l -3.25 3.253906 z m 0 0"/>
        <path d="m 58.789062 86.929688 l -1.625 -1.628907 l 3.25 -3.25 h 8.128907 l 3.25 3.25 l -1.625 1.628907 z m 13.816407 -2.441407 l -3.25 -3.25 v -8.125 l 3.25 -3.25 l 1.625 1.625 v 11.375 z m -12.191407 -12.1875 l -2.4375 -2.4375 l 2.4375 -2.4375 h 8.128907 l 2.4375 2.4375 l -2.4375 2.4375 z m -4.0625 -2.4375 l -1.625 -1.625 v -11.375 l 1.625 -1.625 l 3.25 3.25 v 8.125 z m 16.253907 0 l -3.25 -3.25 v -8.125 l 3.25 -3.25 l 1.625 1.625 v 11.375 z m -12.191407 -12.1875 l -3.25 -3.253906 l 1.625 -1.625 h 11.378907 l 1.625 1.625 l -3.25 3.253906 z m 0 0"/>
        <path d="m 82.101562 86.929688 l -1.625 -1.628907 l 3.25 -3.25 h 8.125 l 3.25 3.25 l -1.625 1.628907 z m 13.8125 -2.441407 l -3.25 -3.25 v -8.125 l 3.25 -3.25 l 1.628907 1.625 v 11.375 z m -12.1875 -12.1875 l -2.4375 -2.4375 l 2.4375 -2.4375 h 8.125 l 2.4375 2.4375 l -2.4375 2.4375 z m -4.0625 -2.4375 l -1.625 -1.625 v -11.375 l 1.625 -1.625 l 3.25 3.25 v 8.125 z m 16.25 0 l -3.25 -3.25 v -8.125 l 3.25 -3.25 l 1.628907 1.625 v 11.375 z m -12.1875 -12.1875 l -3.25 -3.253906 l 1.625 -1.625 h 11.375 l 1.625 1.625 l -3.25 3.253906 z m 0 0"/>
    </g>
    <g clip-path="url(#n)" mask="url(#j)">
        <g clip-path="url(#m)" mask="url(#k)">
            <path d="m 128 80.640625 v 47.359375 h -128 v -47.359375 z m 0 0" fill="url(#l)"/>
            <path d="m 13.308594 80.640625 l 47.355468 47.359375 h 21.214844 l -47.359375 -47.359375 z m 42.421875 0 l 47.363281 47.359375 h 21.214844 l -47.363282 -47.359375 z m 42.429687 0 l 29.839844 29.839844 v -21.210938 l -8.628906 -8.628906 z m -98.160156 7.90625 v 21.214844 l 18.238281 18.238281 h 21.214844 z m 0 0"/>
        </g>
    </g>
</svg>
